{
  "name": "johnatha-shop",
  "region": "us-east-1",
  "storefront": {
    "region": "us-east-1",
    "currencyFormat": "#.##0,00",
    "currencyPrefix": "R$",
    "currency": "BRL",
    "enabledOrderNote": true,
    "customer": "Johnatha",
    "localization": "es_ES",
    "id": "61aa70188fc6af7cdd48a267",
    "collections": [
      "61ae28738fc6af2bbe48a26a"
    ],
    "config": [
      {
        "sharedAddon": false,
        "type": "theme",
        "name": "johnathaUi",
        "metadata": {
          "fonts": {
            "body": "San Francisco, sans-serif",
            "heading": "San Francisco, sans-serif",
            "mono": "Roboto, sans-serif"
          },
          "fontSizes": {
            "xs": "10px",
            "sm": "12px",
            "md": "14px",
            "lg": "16px",
            "xl": "24px",
            "_2xl": "24px",
            "_3xl": "28px",
            "_4xl": "36px",
            "_5xl": "48px",
            "_6xl": "64px"
          },
          "colors": {
            "primary": {
              "_50": "#05299E",
              "_100": "#05299E",
              "_200": "#05299E",
              "_300": "#05299E",
              "_400": "#05299E",
              "_500": "#05299E",
              "_600": "#05299E",
              "_700": "#05299E",
              "_800": "#05299E",
              "_900": "#05299E"
            },
            "secondary": {
              "_50": "#5E4AE3",
              "_100": "#5E4AE3",
              "_200": "#5E4AE3",
              "_300": "#5E4AE3",
              "_400": "#5E4AE3",
              "_500": "#5E4AE3",
              "_600": "#5E4AE3",
              "_700": "#5E4AE3",
              "_800": "#5E4AE3",
              "_900": "#5E4AE3"
            }
          }
        }
      },
      {
        "sharedAddon": false,
        "type": "ui",
        "preset": "johnatha-ui",
        "version": "0.1.0",
        "source": "./ui/storefront.plugins.ts"
      },
      {
        "sharedAddon": false,
        "type": "function",
        "name": "getCatalog2",
        "status": "ENABLED",
        "required": true,
        "metadata": {
          "trigger": {
            "context": "user",
            "event": "responseForOperation",
            "query": "productsPricedPerCollection"
          },
          "entryPoint": "getCatalog2",
          "description": "",
          "protocol": "https",
          "method": "GET",
          "path": "getCatalog2",
          "input": [
            {
              "storefront": "xchemaStorefront"
            }
          ],
          "output": "[xchema.Collection]",
          "parameters": {}
        }
      }
    ]
  }
}